{"cmds":[
    
// First set the oscilloscope parameters so that it would be configured before it's use
{"osc":{"1":[{"command":"setParameters","vOffset":0,"gain":1,"sampleFreq":10000000,"bufferSize":30000,"triggerDelay":0}]}}

,// Check osc state, it will be idle as it's not armed.
{"osc":{"1":[{"command":"getCurrentState"}]}}

,// Set tigger parameters so that it will be armed

{"trigger":{"1":[{"command":"setParameters","source":{"instrument":"osc","channel":1,"type":"risingEdge","lowerThreshold":470,"upperThreshold":500},"targets":{"osc":[1]}},{"command":"single"}]}}

,// Check osc state again, it will be armed !
{"osc":{"1":[{"command":"getCurrentState"}]}}

,// Connect and configure AWG
{"awg":{"1":[{"command":"setRegularWaveform","signalType":"sine","signalFreq":1000000,"vpp":3000,"vOffset":0}]}}

,// Start AWG
{"awg":{"1":[{"command":"run"}]}}

,// Check osc state again, this time it should show triggered !
{"awg":{"1":[{"command":"getCurrentState"}]},"osc":{"1":[{"command":"getCurrentState"}]},"trigger":{"1":[{"command":"getCurrentState"}]}}

,// Take out data

{"osc":{"1":[{"command":"read","acqCount":1}]}}

,// Stop AWG

{"awg":{"1":[{"command":"stop"}]}}

,// Stop trigger
{"trigger":{"1":[{"command":"stop"}]}}


,// Chck awg
{"awg": {"1": [{"command": "getCurrentState"}]}}

]}